UPC SisD 2021-1/Week 01/20211_el41_xor2/simulation/qsim/compuerta_xor.msim.vcd
$comment
	File created using the following command:
		vcd file compuerta_xor.msim.vcd -direction
$end
$date
	Fri Mar 26 16:09:16 2021
$end
$version
	ModelSim Version 10.1d
$end
$timescale
	1ps
$end
$scope module compuerta_xor_vlg_vec_tst $end
$var reg 1 ! IN_A $end
$var reg 1 " IN_B $end
$var reg 1 # IN_C $end
$var wire 1 $ OUT_C $end
$var wire 1 % OUT_D $end
$var wire 1 & sampler $end
$scope module i1 $end
$var wire 1 ' gnd $end
$var wire 1 ( vcc $end
$var wire 1 ) unknown $end
$var tri1 1 * devclrn $end
$var tri1 1 + devpor $end
$var tri1 1 , devoe $end
$var wire 1 - IN_A~combout $end
$var wire 1 . IN_B~combout $end
$var wire 1 / inst~combout $end
$var wire 1 0 IN_C~combout $end
$var wire 1 1 inst1~combout $end
$upscope $end
$upscope $end
$enddefinitions $end
#0
$dumpvars
0!
0"
0#
0$
0%
x&
0'
1(
x)
1*
1+
1,
0-
0.
0/
00
01
$end
#40000
1!
1-
0&
11
1/
1%
1$
#60000
1"
1.
1&
01
0/
0%
0$
#80000
0!
0-
0&
11
1/
1%
1$
#110000
0"
0.
1&
01
0/
0%
0$
#140000
1#
10
0&
11
1%
#150000
1"
1.
1&
01
1/
0%
1$
#160000
1!
1-
0&
11
0/
1%
0$
#170000
0!
0-
1&
01
1/
0%
1$
#180000
0#
00
0&
11
1%
#190000
0"
0.
1&
01
0/
0%
0$
#220000
1!
1-
0&
11
1/
1%
1$
#225000
1"
0!
1.
0-
1&
#230000
0"
1!
0.
1-
0&
#235000
1#
1"
10
1.
1&
0/
0$
#240000
0!
0#
0"
0-
00
0.
0&
01
0%
#255000
1#
10
1&
11
1%
#260000
1!
0#
1-
00
0&
1/
1$
#265000
0!
1#
0-
10
1&
0/
0$
#275000
1"
1.
0&
01
1/
0%
1$
#280000
1!
0#
0"
1-
00
0.
1&
11
1%
#285000
0!
1"
0-
1.
0&
#290000
1#
0"
10
0.
1&
0/
0$
#295000
0#
1"
00
1.
0&
1/
1$
#300000
1!
1#
1-
10
1&
0/
0$
#305000
0"
0!
0.
0-
0&
#310000
0#
00
1&
01
0%
#315000
1"
1.
0&
11
1/
1%
1$
#320000
1#
10
1&
01
0%
#325000
1!
0"
0#
1-
0.
00
0&
11
1%
#330000
1"
1.
1&
01
0/
0%
0$
#335000
0!
1#
0"
0-
10
0.
0&
11
1%
#340000
1!
0#
1"
1-
00
1.
1&
01
0%
#345000
1#
10
0&
11
1%
#350000
0!
0"
0-
0.
1&
#355000
0#
1!
00
1-
0&
1/
1$
#360000
1"
1.
1&
01
0/
0%
0$
#365000
0!
0-
0&
11
1/
1%
1$
#370000
1#
0"
1!
10
0.
1-
1&
01
0%
#375000
0#
00
0&
11
1%
#380000
1#
10
1&
01
0%
#385000
1"
0#
1.
00
0&
0/
0$
#390000
0"
0.
1&
11
1/
1%
1$
#395000
0!
1#
0-
10
0&
0/
0$
#400000
1!
0#
1-
00
1&
1/
1$
#405000
1"
0!
1.
0-
0&
#410000
1#
1!
10
1-
1&
0/
0$
#415000
0"
0!
0.
0-
0&
#420000
0#
1!
00
1-
1&
1/
1$
#425000
1#
0!
10
0-
0&
0/
0$
#435000
0#
1!
00
1-
1&
1/
1$
#440000
1"
1.
0&
01
0/
0%
0$
#445000
1#
0!
0"
10
0-
0.
1&
11
1%
#450000
0#
1"
00
1.
0&
1/
1$
#455000
1!
1#
0"
1-
10
0.
1&
01
0%
#460000
0!
1"
0-
1.
0&
#465000
1!
1-
1&
11
0/
1%
0$
#470000
0#
00
0&
01
0%
#475000
0"
0!
1#
0.
0-
10
1&
11
1%
#480000
0#
00
0&
01
0%
