UPC Sistemas Digitales 2020-1/Semana 1/CKTO_4/simulation/qsim/CKTO_4.msim.vcd
$comment
	File created using the following command:
		vcd file CKTO_4.msim.vcd -direction
$end
$date
	Fri Mar 27 16:10:01 2020
$end
$version
	ModelSim Version 10.1d
$end
$timescale
	1ps
$end
$scope module CKTO_4_vlg_vec_tst $end
$var reg 1 ! IA $end
$var reg 1 " IB $end
$var reg 1 # IC $end
$var wire 1 $ OD $end
$var wire 1 % sampler $end
$scope module i1 $end
$var wire 1 & gnd $end
$var wire 1 ' vcc $end
$var wire 1 ( unknown $end
$var tri1 1 ) devclrn $end
$var tri1 1 * devpor $end
$var tri1 1 + devoe $end
$var wire 1 , IA~combout $end
$var wire 1 - IB~combout $end
$var wire 1 . IC~combout $end
$var wire 1 / inst4~combout $end
$upscope $end
$upscope $end
$enddefinitions $end
#0
$dumpvars
0!
0"
0#
0$
x%
0&
1'
x(
1)
1*
1+
0,
0-
0.
0/
$end
#60000
1!
1,
0%
#70000
1#
1.
1%
1/
1$
#80000
1"
1-
0%
0/
0$
#90000
0#
0.
1%
1/
1$
#100000
0!
0,
0%
0/
0$
#130000
0"
0-
1%
#160000
1!
1"
1,
1-
0%
1/
1$
#190000
1#
1.
1%
0/
0$
#210000
0"
0-
0%
1/
1$
#220000
0#
0.
1%
0/
0$
#250000
1"
1-
0%
1/
1$
#270000
0!
0"
0,
0-
1%
0/
0$
#290000
1#
1.
0%
1/
1$
#310000
1!
1,
1%
#340000
1"
1-
0%
0/
0$
#360000
0#
0.
1%
1/
1$
#370000
0!
0,
0%
0/
0$
#430000
0"
0-
1%
