UPS Sistemas Digitales 2020-1/Semana 1/Compuerta_NAND/simulation/qsim/Compuerta_NAND.msim.vcd
$comment
	File created using the following command:
		vcd file Compuerta_NAND.msim.vcd -direction
$end
$date
	Fri Mar 27 10:35:14 2020
$end
$version
	ModelSim Version 10.1d
$end
$timescale
	1ps
$end
$scope module Compuerta_NAND_vlg_vec_tst $end
$var reg 1 ! INA $end
$var reg 1 " INB $end
$var wire 1 # OUTC $end
$var wire 1 $ sampler $end
$scope module i1 $end
$var wire 1 % gnd $end
$var wire 1 & vcc $end
$var wire 1 ' unknown $end
$var tri1 1 ( devclrn $end
$var tri1 1 ) devpor $end
$var tri1 1 * devoe $end
$var wire 1 + INA~combout $end
$var wire 1 , INB~combout $end
$var wire 1 - inst~combout $end
$upscope $end
$upscope $end
$enddefinitions $end
#0
$dumpvars
0!
0"
1#
x$
0%
1&
x'
1(
1)
1*
0+
0,
0-
$end
#50000
1!
1+
0$
#70000
1"
1,
1$
1-
0#
#100000
0!
0+
0$
0-
1#
#130000
0"
0,
1$
#170000
1!
1"
1+
1,
0$
1-
0#
#200000
0!
0"
0+
0,
1$
0-
1#
#230000
1!
1+
0$
#250000
0!
0+
1$
#270000
1"
1,
0$
#300000
0"
0,
1$
#330000
1!
1"
1+
1,
0$
1-
0#
#340000
0!
0"
0+
0,
1$
0-
1#
#370000
1!
1+
0$
#390000
0!
0+
1$
#410000
1"
1,
0$
#430000
1!
1+
1$
1-
0#
#500000
0"
0!
0,
0+
0$
0-
1#
#540000
1"
1,
1$
#560000
1!
1+
0$
1-
0#
#580000
0"
0,
1$
0-
1#
#620000
0!
0+
0$
