UPC SisD 2021-1/Week 06/20202_sem6d/simulation/qsim/el_ultimo.msim.vcd
$comment
	File created using the following command:
		vcd file el_ultimo.msim.vcd -direction
$end
$date
	Fri Apr 30 16:37:41 2021
$end
$version
	ModelSim Version 10.1d
$end
$timescale
	1ps
$end
$scope module el_ultimo_vlg_vec_tst $end
$var reg 1 ! clk $end
$var reg 1 " D $end
$var wire 1 # Q $end
$var wire 1 $ sampler $end
$scope module i1 $end
$var wire 1 % gnd $end
$var wire 1 & vcc $end
$var wire 1 ' unknown $end
$var tri1 1 ( devclrn $end
$var tri1 1 ) devpor $end
$var tri1 1 * devoe $end
$var wire 1 + clk~combout $end
$var wire 1 , clk~clkctrl_outclk $end
$var wire 1 - D~combout $end
$var wire 1 . es_p~13_combout $end
$var wire 1 / es_p.J1~regout $end
$var wire 1 0 es_p~12_combout $end
$var wire 1 1 es_p.J2~regout $end
$var wire 1 2 es_p~11_combout $end
$var wire 1 3 es_p.J3~regout $end
$var wire 1 4 Selector1~0_combout $end
$var wire 1 5 es_p.J4~regout $end
$var wire 1 6 es_p~10_combout $end
$var wire 1 7 es_p.J5~regout $end
$var wire 1 8 Q~0_combout $end
$upscope $end
$upscope $end
$enddefinitions $end
#0
$dumpvars
0!
0"
0#
x$
0%
1&
x'
1(
1)
1*
0+
0,
0-
0.
0/
00
01
02
03
04
05
06
07
08
$end
#20000
1!
1+
1,
0$
#40000
0!
0+
0,
1$
#50000
1"
1-
0$
1.
#60000
1!
1+
1,
1$
1/
#70000
0"
0-
0$
10
0.
#80000
0!
0+
0,
1$
#100000
1!
1+
1,
0$
11
0/
00
#120000
0!
0+
0,
1$
#130000
1"
1-
0$
12
#140000
1!
1+
1,
1$
13
01
02
1.
#150000
0"
0-
0$
14
0.
#160000
0!
0+
0,
1$
#180000
1!
1+
1,
0$
15
03
04
#200000
0!
0+
0,
1$
#210000
1"
1-
0$
16
#220000
1!
1+
1,
1$
17
05
18
06
1.
1#
#230000
0"
0-
0$
08
14
0.
0#
#240000
0!
0+
0,
1$
#250000
1"
1-
0$
18
04
1.
1#
#260000
1!
1+
1,
1$
07
1/
08
0#
#270000
0"
0-
0$
10
0.
#280000
0!
0+
0,
1$
#290000
1"
1-
0$
00
1.
#300000
1!
1+
1,
1$
#310000
0"
0-
0$
10
0.
#320000
0!
0+
0,
1$
#330000
1"
1-
0$
00
1.
#340000
1!
1+
1,
1$
#350000
0"
0-
0$
10
0.
#360000
0!
0+
0,
1$
#380000
1!
1+
1,
0$
11
0/
00
#400000
0!
0+
0,
1$
#410000
1"
1-
0$
12
#420000
1!
1+
1,
1$
13
01
02
1.
#440000
0!
0+
0,
0$
#450000
0"
0-
1$
14
0.
#460000
1!
1+
1,
0$
15
03
04
#480000
0!
0+
0,
1$
#490000
1"
1-
0$
16
#500000
1!
1+
1,
1$
17
05
18
06
1.
1#
#520000
0!
0+
0,
0$
#540000
1!
1+
1,
1$
07
1/
08
0#
#560000
0!
0+
0,
0$
#570000
0"
0-
1$
10
0.
#580000
1!
1+
1,
0$
11
0/
00
#600000
0!
0+
0,
1$
#620000
1!
1+
1,
0$
01
#640000
0!
0+
0,
1$
#650000
1"
1-
0$
1.
#660000
1!
1+
1,
1$
1/
#680000
0!
0+
0,
0$
#690000
0"
0-
1$
10
0.
#700000
1!
1+
1,
0$
11
0/
00
#720000
0!
0+
0,
1$
#730000
1"
1-
0$
12
#740000
1!
1+
1,
1$
13
01
02
1.
#750000
0"
0-
0$
14
0.
#760000
0!
0+
0,
1$
#770000
1"
1-
0$
04
1.
#780000
1!
1+
1,
1$
03
1/
#800000
0!
0+
0,
0$
#820000
1!
1+
1,
1$
#830000
0"
0-
0$
10
0.
#840000
0!
0+
0,
1$
#850000
1"
1-
0$
00
1.
#860000
1!
1+
1,
1$
#870000
0"
0-
0$
10
0.
#880000
0!
0+
0,
1$
#900000
1!
1+
1,
0$
11
0/
00
#920000
0!
0+
0,
1$
#930000
1"
1-
0$
12
#940000
1!
1+
1,
1$
13
01
02
1.
#950000
0"
0-
0$
14
0.
#960000
0!
0+
0,
1$
#980000
1!
1+
1,
0$
15
03
04
