UPC SisD 2021-1/Week 01/20211_el41_xor1/simulation/qsim/compuerta_xor.msim.vcd
$comment
	File created using the following command:
		vcd file compuerta_xor.msim.vcd -direction
$end
$date
	Fri Mar 26 12:05:26 2021
$end
$version
	ModelSim Version 10.1d
$end
$timescale
	1ps
$end
$scope module compuerta_xor_vlg_vec_tst $end
$var reg 1 ! IN_A $end
$var reg 1 " IN_B $end
$var wire 1 # OUT_C $end
$var wire 1 $ sampler $end
$scope module i1 $end
$var wire 1 % gnd $end
$var wire 1 & vcc $end
$var wire 1 ' unknown $end
$var tri1 1 ( devclrn $end
$var tri1 1 ) devpor $end
$var tri1 1 * devoe $end
$var wire 1 + IN_B~combout $end
$var wire 1 , IN_A~combout $end
$var wire 1 - inst~combout $end
$upscope $end
$upscope $end
$enddefinitions $end
#0
$dumpvars
0!
0"
0#
x$
0%
1&
x'
1(
1)
1*
0+
0,
0-
$end
#70000
1!
1,
0$
1-
1#
#110000
1"
1+
1$
0-
0#
#150000
0!
0,
0$
1-
1#
#180000
0"
0+
1$
0-
0#
#210000
1!
1,
0$
1-
1#
#220000
1"
1+
1$
0-
0#
#240000
0"
0+
0$
1-
1#
#250000
0!
0,
1$
0-
0#
#290000
1"
1+
0$
1-
1#
#310000
1!
1,
1$
0-
0#
#330000
0!
0,
0$
1-
1#
#360000
0"
0+
1$
0-
0#
#400000
1!
1,
0$
1-
1#
#410000
0!
0,
1$
0-
0#
#415000
1!
1,
0$
1-
1#
#420000
0!
0,
1$
0-
0#
#445000
1!
1,
0$
1-
1#
#460000
1"
1+
1$
0-
0#
#465000
0"
0+
0$
1-
1#
#470000
1"
1+
1$
0-
0#
#485000
0"
0+
0$
1-
1#
#505000
0!
1"
0,
1+
1$
#510000
0"
0+
0$
0-
0#
#515000
1!
1,
1$
1-
1#
#520000
0!
0,
0$
0-
0#
#525000
1!
1,
1$
1-
1#
#530000
0!
0,
0$
0-
0#
#540000
1!
1,
1$
1-
1#
#545000
0!
0,
0$
0-
0#
#555000
1!
1,
1$
1-
1#
#565000
0!
0,
0$
0-
0#
#570000
1"
1+
1$
1-
1#
#575000
1!
0"
1,
0+
0$
#580000
1"
1+
1$
0-
0#
#585000
0!
0,
0$
1-
1#
#595000
1!
1,
1$
0-
0#
#600000
0"
0!
0+
0,
0$
#605000
1"
1+
1$
1-
1#
#610000
0"
0+
0$
0-
0#
#615000
1"
1+
1$
1-
1#
#620000
0"
0+
0$
0-
0#
#635000
1"
1+
1$
1-
1#
#640000
0"
0+
0$
0-
0#
#645000
1"
1+
1$
1-
1#
#655000
0"
0+
0$
0-
0#
#660000
1"
1+
1$
1-
1#
#685000
0"
0+
0$
0-
0#
#705000
1"
1+
1$
1-
1#
#720000
0"
0+
0$
0-
0#
