UPC SisD 2021-1/Week 06/20202_detect/simulation/qsim/detect.msim.vcd
$comment
	File created using the following command:
		vcd file detect.msim.vcd -direction
$end
$date
	Sun Sep 20 19:07:40 2020
$end
$version
	ModelSim Version 10.1d
$end
$timescale
	1ps
$end
$scope module detect_vlg_vec_tst $end
$var reg 1 ! clk $end
$var reg 1 " D $end
$var reg 1 # rst $end
$var wire 1 $ Q $end
$var wire 1 % sampler $end
$scope module i1 $end
$var wire 1 & gnd $end
$var wire 1 ' vcc $end
$var wire 1 ( unknown $end
$var tri1 1 ) devclrn $end
$var tri1 1 * devpor $end
$var tri1 1 + devoe $end
$var wire 1 , clk~combout $end
$var wire 1 - clk~clkctrl_outclk $end
$var wire 1 . D~combout $end
$var wire 1 / Selector0~0_combout $end
$var wire 1 0 Selector0~1_combout $end
$var wire 1 1 rst~combout $end
$var wire 1 2 rst~clkctrl_outclk $end
$var wire 1 3 es_p.T0~regout $end
$var wire 1 4 es_p~17_combout $end
$var wire 1 5 es_p.T1~regout $end
$var wire 1 6 Selector1~0_combout $end
$var wire 1 7 es_p.T2~regout $end
$var wire 1 8 es_p~16_combout $end
$var wire 1 9 es_p.T3~regout $end
$var wire 1 : es_p~15_combout $end
$var wire 1 ; es_p.T4~regout $end
$var wire 1 < es_p~14_combout $end
$var wire 1 = es_p.T5~regout $end
$var wire 1 > es_p~13_combout $end
$var wire 1 ? es_p.T6~regout $end
$var wire 1 @ es_p~12_combout $end
$var wire 1 A es_p.T7~regout $end
$upscope $end
$upscope $end
$enddefinitions $end
#0
$dumpvars
0!
0"
1#
x$
x%
0&
1'
x(
1)
1*
1+
0,
x-
0.
x/
x0
11
x2
x3
x4
x5
x6
x7
x8
x9
x:
x;
x<
x=
x>
x?
x@
xA
$end
#143
0-
12
#267
03
05
07
09
0;
0=
0?
0A
#912
0<
#921
0@
#1094
06
#1097
0:
#1198
0>
#1205
08
#4419
0$
#6402
04
#6403
0/
#6966
00
#20000
1!
0%
#21100
1,
#21243
1-
#40000
0#
0!
1%
#41090
01
#41100
0,
#41233
02
#41243
0-
#50000
1"
0%
#50944
1.
#57346
14
#57347
1/
#57910
10
#60000
1!
1%
#61100
1,
#61243
1-
#63074
13
15
#70000
0"
0%
#70944
0.
#77256
16
#77346
04
#80000
0!
1%
#81100
0,
#81243
0-
#100000
1!
0%
#101100
1,
#101243
1-
#103074
05
17
#103713
06
#103714
0/
#104277
00
#120000
0!
1%
#121100
0,
#121243
0-
#130000
1"
0%
#130944
1.
#137334
18
#137347
1/
#137910
10
#140000
1!
1%
#141100
1,
#141243
1-
#143074
07
19
#143893
08
#143904
1:
#150000
0"
0%
#150944
0.
#157256
16
#157339
0:
#160000
0!
1%
#161100
0,
#161243
0-
#170000
1"
0%
#170944
1.
#177256
06
#177339
1:
#180000
1!
1%
#181100
1,
#181243
1-
#183074
09
1;
#183904
0:
#184149
14
#190000
0"
0%
#190944
0.
#197088
1<
#197346
04
#200000
0!
1%
#201100
0,
#201243
0-
#220000
1!
0%
#221100
1,
#221243
1-
#223074
0;
1=
#223719
0<
#224150
0/
#224713
00
#240000
0!
1%
#241100
0,
#241243
0-
#250000
1"
0%
#250944
1.
#257301
1>
#257347
1/
#257910
10
#260000
1!
1%
#261100
1,
#261243
1-
#263074
0=
1?
#263728
1:
#264005
0>
#270000
0"
0%
#270944
0.
#277087
1@
#277339
0:
#277347
0/
#280000
0!
1%
#281100
0,
#281243
0-
#300000
1!
0%
#301100
1,
#301243
1-
#303074
0?
1A
#303728
0@
#304153
00
#307226
1$
#320000
0!
1%
#321100
0,
#321243
0-
#330000
1"
0%
#330944
1.
#337334
18
#337347
1/
#337910
10
#340000
1!
1%
#341100
1,
#341243
1-
#343074
19
0A
#343904
1:
#344012
08
#347226
0$
#360000
0!
0%
#361100
0,
#361243
0-
#380000
1!
1%
#381100
1,
#381243
1-
#383074
09
1;
#383904
0:
#384149
14
#400000
0!
0%
#401100
0,
#401243
0-
#420000
1!
1%
#421100
1,
#421243
1-
#423074
15
0;
#430000
0"
0%
#430944
0.
#437256
16
#437346
04
#440000
0!
1%
#441100
0,
#441243
0-
#460000
1!
0%
#461100
1,
#461243
1-
#463074
05
17
#463713
06
#463714
0/
#464277
00
#480000
0!
1%
#481100
0,
#481243
0-
#500000
1!
0%
#501100
1,
#501243
1-
#503074
03
07
#520000
0!
1%
#521100
0,
#521243
0-
#540000
1!
0%
#541100
1,
#541243
1-
#560000
0!
1%
#561100
0,
#561243
0-
#580000
1!
0%
#581100
1,
#581243
1-
#600000
0!
1%
#601100
0,
#601243
0-
#620000
1!
0%
#621100
1,
#621243
1-
#640000
0!
1%
#641100
0,
#641243
0-
#660000
1!
0%
#661100
1,
#661243
1-
#680000
0!
1%
#681100
0,
#681243
0-
#700000
1!
0%
#701100
1,
#701243
1-
#720000
0!
1%
#721100
0,
#721243
0-
#740000
1!
0%
#741100
1,
#741243
1-
#760000
0!
1%
#761100
0,
#761243
0-
#780000
1!
0%
#781100
1,
#781243
1-
#800000
0!
1%
#801100
0,
#801243
0-
#820000
1!
0%
#821100
1,
#821243
1-
#840000
0!
1%
#841100
0,
#841243
0-
#860000
1!
0%
#861100
1,
#861243
1-
#880000
0!
1%
#881100
0,
#881243
0-
#900000
1!
0%
#901100
1,
#901243
1-
#920000
0!
1%
#921100
0,
#921243
0-
#940000
1!
0%
#941100
1,
#941243
1-
#960000
0!
1%
#961100
0,
#961243
0-
#980000
1!
0%
#981100
1,
